%YAML 1.1
%TAG !u! tag:unity3d.com,2011:
--- !u!1001 &4099296464423121715
PrefabInstance:
  m_ObjectHideFlags: 0
  serializedVersion: 2
  m_Modification:
    m_TransformParent: {fileID: 0}
    m_Modifications:
    - target: {fileID: -8679921383154817045, guid: 01aa103a29aa99b7686b9ec61c48fde4, type: 3}
      propertyPath: m_RootOrder
      value: 0
      objectReference: {fileID: 0}
    - target: {fileID: -8679921383154817045, guid: 01aa103a29aa99b7686b9ec61c48fde4, type: 3}
      propertyPath: m_LocalPosition.x
      value: -0
      objectReference: {fileID: 0}
    - target: {fileID: -8679921383154817045, guid: 01aa103a29aa99b7686b9ec61c48fde4, type: 3}
      propertyPath: m_LocalPosition.y
      value: 0
      objectReference: {fileID: 0}
    - target: {fileID: -8679921383154817045, guid: 01aa103a29aa99b7686b9ec61c48fde4, type: 3}
      propertyPath: m_LocalPosition.z
      value: 0
      objectReference: {fileID: 0}
    - target: {fileID: -8679921383154817045, guid: 01aa103a29aa99b7686b9ec61c48fde4, type: 3}
      propertyPath: m_LocalRotation.w
      value: 1
      objectReference: {fileID: 0}
    - target: {fileID: -8679921383154817045, guid: 01aa103a29aa99b7686b9ec61c48fde4, type: 3}
      propertyPath: m_LocalRotation.x
      value: 0
      objectReference: {fileID: 0}
    - target: {fileID: -8679921383154817045, guid: 01aa103a29aa99b7686b9ec61c48fde4, type: 3}
      propertyPath: m_LocalRotation.y
      value: -0
      objectReference: {fileID: 0}
    - target: {fileID: -8679921383154817045, guid: 01aa103a29aa99b7686b9ec61c48fde4, type: 3}
      propertyPath: m_LocalRotation.z
      value: -0
      objectReference: {fileID: 0}
    - target: {fileID: -8679921383154817045, guid: 01aa103a29aa99b7686b9ec61c48fde4, type: 3}
      propertyPath: m_LocalEulerAnglesHint.x
      value: 0
      objectReference: {fileID: 0}
    - target: {fileID: -8679921383154817045, guid: 01aa103a29aa99b7686b9ec61c48fde4, type: 3}
      propertyPath: m_LocalEulerAnglesHint.y
      value: 0
      objectReference: {fileID: 0}
    - target: {fileID: -8679921383154817045, guid: 01aa103a29aa99b7686b9ec61c48fde4, type: 3}
      propertyPath: m_LocalEulerAnglesHint.z
      value: 0
      objectReference: {fileID: 0}
    - target: {fileID: -7511558181221131132, guid: 01aa103a29aa99b7686b9ec61c48fde4, type: 3}
      propertyPath: m_Materials.Array.data[0]
      value: 
      objectReference: {fileID: 2100000, guid: c25517ee5a76f09549ca2824ff138bd4, type: 2}
    - target: {fileID: -7511558181221131132, guid: 01aa103a29aa99b7686b9ec61c48fde4, type: 3}
      propertyPath: m_Materials.Array.data[1]
      value: 
      objectReference: {fileID: 2100000, guid: 6cb491792e4b7313ea930d107eda703f, type: 2}
    - target: {fileID: 919132149155446097, guid: 01aa103a29aa99b7686b9ec61c48fde4, type: 3}
      propertyPath: m_Name
      value: littleLeavesShrub Variant
      objectReference: {fileID: 0}
    m_RemovedComponents: []
  m_SourcePrefab: {fileID: 100100000, guid: 01aa103a29aa99b7686b9ec61c48fde4, type: 3}
--- !u!1 &3756786847179165282 stripped
GameObject:
  m_CorrespondingSourceObject: {fileID: 919132149155446097, guid: 01aa103a29aa99b7686b9ec61c48fde4, type: 3}
  m_PrefabInstance: {fileID: 4099296464423121715}
  m_PrefabAsset: {fileID: 0}
--- !u!65 &431445260052565994
BoxCollider:
  m_ObjectHideFlags: 0
  m_CorrespondingSourceObject: {fileID: 0}
  m_PrefabInstance: {fileID: 0}
  m_PrefabAsset: {fileID: 0}
  m_GameObject: {fileID: 3756786847179165282}
  m_Material: {fileID: 0}
  m_IsTrigger: 0
  m_Enabled: 1
  serializedVersion: 2
  m_Size: {x: 0.06, y: 1.3, z: 0.06}
  m_Center: {x: 0, y: 0.6, z: 0}
