%YAML 1.1
%TAG !u! tag:unity3d.com,2011:
--- !u!1001 &2578257249766669050
PrefabInstance:
  m_ObjectHideFlags: 0
  serializedVersion: 2
  m_Modification:
    m_TransformParent: {fileID: 0}
    m_Modifications:
    - target: {fileID: -8679921383154817045, guid: b79ea7d30c3eb9ee7b39cd55a82c6229, type: 3}
      propertyPath: m_RootOrder
      value: 0
      objectReference: {fileID: 0}
    - target: {fileID: -8679921383154817045, guid: b79ea7d30c3eb9ee7b39cd55a82c6229, type: 3}
      propertyPath: m_LocalPosition.x
      value: -0
      objectReference: {fileID: 0}
    - target: {fileID: -8679921383154817045, guid: b79ea7d30c3eb9ee7b39cd55a82c6229, type: 3}
      propertyPath: m_LocalPosition.y
      value: 0
      objectReference: {fileID: 0}
    - target: {fileID: -8679921383154817045, guid: b79ea7d30c3eb9ee7b39cd55a82c6229, type: 3}
      propertyPath: m_LocalPosition.z
      value: 0
      objectReference: {fileID: 0}
    - target: {fileID: -8679921383154817045, guid: b79ea7d30c3eb9ee7b39cd55a82c6229, type: 3}
      propertyPath: m_LocalRotation.w
      value: 1
      objectReference: {fileID: 0}
    - target: {fileID: -8679921383154817045, guid: b79ea7d30c3eb9ee7b39cd55a82c6229, type: 3}
      propertyPath: m_LocalRotation.x
      value: 0
      objectReference: {fileID: 0}
    - target: {fileID: -8679921383154817045, guid: b79ea7d30c3eb9ee7b39cd55a82c6229, type: 3}
      propertyPath: m_LocalRotation.y
      value: -0
      objectReference: {fileID: 0}
    - target: {fileID: -8679921383154817045, guid: b79ea7d30c3eb9ee7b39cd55a82c6229, type: 3}
      propertyPath: m_LocalRotation.z
      value: -0
      objectReference: {fileID: 0}
    - target: {fileID: -8679921383154817045, guid: b79ea7d30c3eb9ee7b39cd55a82c6229, type: 3}
      propertyPath: m_LocalEulerAnglesHint.x
      value: 0
      objectReference: {fileID: 0}
    - target: {fileID: -8679921383154817045, guid: b79ea7d30c3eb9ee7b39cd55a82c6229, type: 3}
      propertyPath: m_LocalEulerAnglesHint.y
      value: 0
      objectReference: {fileID: 0}
    - target: {fileID: -8679921383154817045, guid: b79ea7d30c3eb9ee7b39cd55a82c6229, type: 3}
      propertyPath: m_LocalEulerAnglesHint.z
      value: 0
      objectReference: {fileID: 0}
    - target: {fileID: -7511558181221131132, guid: b79ea7d30c3eb9ee7b39cd55a82c6229, type: 3}
      propertyPath: m_Materials.Array.data[0]
      value: 
      objectReference: {fileID: 2100000, guid: 700550ff96aeb4b95b27ff24e7a9e5a6, type: 2}
    - target: {fileID: 919132149155446097, guid: b79ea7d30c3eb9ee7b39cd55a82c6229, type: 3}
      propertyPath: m_Name
      value: bigLeaves
      objectReference: {fileID: 0}
    m_RemovedComponents: []
  m_SourcePrefab: {fileID: 100100000, guid: b79ea7d30c3eb9ee7b39cd55a82c6229, type: 3}
--- !u!1 &3388578971806844843 stripped
GameObject:
  m_CorrespondingSourceObject: {fileID: 919132149155446097, guid: b79ea7d30c3eb9ee7b39cd55a82c6229, type: 3}
  m_PrefabInstance: {fileID: 2578257249766669050}
  m_PrefabAsset: {fileID: 0}
--- !u!64 &-709603702112498
MeshCollider:
  m_ObjectHideFlags: 0
  m_CorrespondingSourceObject: {fileID: 0}
  m_PrefabInstance: {fileID: 0}
  m_PrefabAsset: {fileID: 0}
  m_GameObject: {fileID: 3388578971806844843}
  m_Material: {fileID: 0}
  m_IsTrigger: 0
  m_Enabled: 1
  serializedVersion: 4
  m_Convex: 0
  m_CookingOptions: 30
  m_Mesh: {fileID: 7259143643623457638, guid: b79ea7d30c3eb9ee7b39cd55a82c6229, type: 3}
--- !u!65 &781832439037906657
BoxCollider:
  m_ObjectHideFlags: 0
  m_CorrespondingSourceObject: {fileID: 0}
  m_PrefabInstance: {fileID: 0}
  m_PrefabAsset: {fileID: 0}
  m_GameObject: {fileID: 3388578971806844843}
  m_Material: {fileID: 0}
  m_IsTrigger: 0
  m_Enabled: 1
  serializedVersion: 2
  m_Size: {x: 0.58, y: 6.102723, z: 0.66}
  m_Center: {x: 0.01676315, y: 3.0513616, z: -0.06858134}
