%YAML 1.1
%TAG !u! tag:unity3d.com,2011:
--- !u!1001 &1473223271229080158
PrefabInstance:
  m_ObjectHideFlags: 0
  serializedVersion: 2
  m_Modification:
    m_TransformParent: {fileID: 0}
    m_Modifications:
    - target: {fileID: -8679921383154817045, guid: 331e6cacaa5064ecb91f918c9aca93fd, type: 3}
      propertyPath: m_RootOrder
      value: 0
      objectReference: {fileID: 0}
    - target: {fileID: -8679921383154817045, guid: 331e6cacaa5064ecb91f918c9aca93fd, type: 3}
      propertyPath: m_LocalPosition.x
      value: -0
      objectReference: {fileID: 0}
    - target: {fileID: -8679921383154817045, guid: 331e6cacaa5064ecb91f918c9aca93fd, type: 3}
      propertyPath: m_LocalPosition.y
      value: 0
      objectReference: {fileID: 0}
    - target: {fileID: -8679921383154817045, guid: 331e6cacaa5064ecb91f918c9aca93fd, type: 3}
      propertyPath: m_LocalPosition.z
      value: 0
      objectReference: {fileID: 0}
    - target: {fileID: -8679921383154817045, guid: 331e6cacaa5064ecb91f918c9aca93fd, type: 3}
      propertyPath: m_LocalRotation.w
      value: 1
      objectReference: {fileID: 0}
    - target: {fileID: -8679921383154817045, guid: 331e6cacaa5064ecb91f918c9aca93fd, type: 3}
      propertyPath: m_LocalRotation.x
      value: 0
      objectReference: {fileID: 0}
    - target: {fileID: -8679921383154817045, guid: 331e6cacaa5064ecb91f918c9aca93fd, type: 3}
      propertyPath: m_LocalRotation.y
      value: -0
      objectReference: {fileID: 0}
    - target: {fileID: -8679921383154817045, guid: 331e6cacaa5064ecb91f918c9aca93fd, type: 3}
      propertyPath: m_LocalRotation.z
      value: -0
      objectReference: {fileID: 0}
    - target: {fileID: -8679921383154817045, guid: 331e6cacaa5064ecb91f918c9aca93fd, type: 3}
      propertyPath: m_LocalEulerAnglesHint.x
      value: 0
      objectReference: {fileID: 0}
    - target: {fileID: -8679921383154817045, guid: 331e6cacaa5064ecb91f918c9aca93fd, type: 3}
      propertyPath: m_LocalEulerAnglesHint.y
      value: 0
      objectReference: {fileID: 0}
    - target: {fileID: -8679921383154817045, guid: 331e6cacaa5064ecb91f918c9aca93fd, type: 3}
      propertyPath: m_LocalEulerAnglesHint.z
      value: 0
      objectReference: {fileID: 0}
    - target: {fileID: -7511558181221131132, guid: 331e6cacaa5064ecb91f918c9aca93fd, type: 3}
      propertyPath: m_Materials.Array.data[0]
      value: 
      objectReference: {fileID: 2100000, guid: a8b7017bfcb262a319b78b3ad74b10b2, type: 2}
    - target: {fileID: -7511558181221131132, guid: 331e6cacaa5064ecb91f918c9aca93fd, type: 3}
      propertyPath: m_Materials.Array.data[1]
      value: 
      objectReference: {fileID: 2100000, guid: 66437b4c7b3af3279bbb8e06d605beed, type: 2}
    - target: {fileID: 919132149155446097, guid: 331e6cacaa5064ecb91f918c9aca93fd, type: 3}
      propertyPath: m_Name
      value: bigLeavesTree Variant
      objectReference: {fileID: 0}
    - target: {fileID: 919132149155446097, guid: 331e6cacaa5064ecb91f918c9aca93fd, type: 3}
      propertyPath: m_Layer
      value: 7
      objectReference: {fileID: 0}
    m_RemovedComponents: []
  m_SourcePrefab: {fileID: 100100000, guid: 331e6cacaa5064ecb91f918c9aca93fd, type: 3}
--- !u!1 &1779090162253299471 stripped
GameObject:
  m_CorrespondingSourceObject: {fileID: 919132149155446097, guid: 331e6cacaa5064ecb91f918c9aca93fd, type: 3}
  m_PrefabInstance: {fileID: 1473223271229080158}
  m_PrefabAsset: {fileID: 0}
--- !u!65 &2837082390751431009
BoxCollider:
  m_ObjectHideFlags: 0
  m_CorrespondingSourceObject: {fileID: 0}
  m_PrefabInstance: {fileID: 0}
  m_PrefabAsset: {fileID: 0}
  m_GameObject: {fileID: 1779090162253299471}
  m_Material: {fileID: 0}
  m_IsTrigger: 0
  m_Enabled: 1
  serializedVersion: 2
  m_Size: {x: 0.32064402, y: 6.13, z: 0.3022293}
  m_Center: {x: -0.0005342066, y: 3.19, z: 0.0004594922}
