%YAML 1.1
%TAG !u! tag:unity3d.com,2011:
--- !u!1001 &3703098178169738853
PrefabInstance:
  m_ObjectHideFlags: 0
  serializedVersion: 2
  m_Modification:
    m_TransformParent: {fileID: 0}
    m_Modifications:
    - target: {fileID: -8679921383154817045, guid: f14cb1c1dbd9f186e8c5fffbe4226805, type: 3}
      propertyPath: m_RootOrder
      value: 0
      objectReference: {fileID: 0}
    - target: {fileID: -8679921383154817045, guid: f14cb1c1dbd9f186e8c5fffbe4226805, type: 3}
      propertyPath: m_LocalPosition.x
      value: -0
      objectReference: {fileID: 0}
    - target: {fileID: -8679921383154817045, guid: f14cb1c1dbd9f186e8c5fffbe4226805, type: 3}
      propertyPath: m_LocalPosition.y
      value: 0
      objectReference: {fileID: 0}
    - target: {fileID: -8679921383154817045, guid: f14cb1c1dbd9f186e8c5fffbe4226805, type: 3}
      propertyPath: m_LocalPosition.z
      value: 0
      objectReference: {fileID: 0}
    - target: {fileID: -8679921383154817045, guid: f14cb1c1dbd9f186e8c5fffbe4226805, type: 3}
      propertyPath: m_LocalRotation.w
      value: 1
      objectReference: {fileID: 0}
    - target: {fileID: -8679921383154817045, guid: f14cb1c1dbd9f186e8c5fffbe4226805, type: 3}
      propertyPath: m_LocalRotation.x
      value: 0
      objectReference: {fileID: 0}
    - target: {fileID: -8679921383154817045, guid: f14cb1c1dbd9f186e8c5fffbe4226805, type: 3}
      propertyPath: m_LocalRotation.y
      value: -0
      objectReference: {fileID: 0}
    - target: {fileID: -8679921383154817045, guid: f14cb1c1dbd9f186e8c5fffbe4226805, type: 3}
      propertyPath: m_LocalRotation.z
      value: -0
      objectReference: {fileID: 0}
    - target: {fileID: -8679921383154817045, guid: f14cb1c1dbd9f186e8c5fffbe4226805, type: 3}
      propertyPath: m_LocalEulerAnglesHint.x
      value: 0
      objectReference: {fileID: 0}
    - target: {fileID: -8679921383154817045, guid: f14cb1c1dbd9f186e8c5fffbe4226805, type: 3}
      propertyPath: m_LocalEulerAnglesHint.y
      value: 0
      objectReference: {fileID: 0}
    - target: {fileID: -8679921383154817045, guid: f14cb1c1dbd9f186e8c5fffbe4226805, type: 3}
      propertyPath: m_LocalEulerAnglesHint.z
      value: 0
      objectReference: {fileID: 0}
    - target: {fileID: -7511558181221131132, guid: f14cb1c1dbd9f186e8c5fffbe4226805, type: 3}
      propertyPath: m_Materials.Array.data[0]
      value: 
      objectReference: {fileID: 2100000, guid: d75bd6a5a32a51369ad7be6de5d0d050, type: 2}
    - target: {fileID: -7511558181221131132, guid: f14cb1c1dbd9f186e8c5fffbe4226805, type: 3}
      propertyPath: m_Materials.Array.data[1]
      value: 
      objectReference: {fileID: 2100000, guid: 4c49aba04159a6ecd8d206938ba20811, type: 2}
    - target: {fileID: 919132149155446097, guid: f14cb1c1dbd9f186e8c5fffbe4226805, type: 3}
      propertyPath: m_Name
      value: tree Variant
      objectReference: {fileID: 0}
    m_RemovedComponents: []
  m_SourcePrefab: {fileID: 100100000, guid: f14cb1c1dbd9f186e8c5fffbe4226805, type: 3}
--- !u!1 &4586183935837940532 stripped
GameObject:
  m_CorrespondingSourceObject: {fileID: 919132149155446097, guid: f14cb1c1dbd9f186e8c5fffbe4226805, type: 3}
  m_PrefabInstance: {fileID: 3703098178169738853}
  m_PrefabAsset: {fileID: 0}
--- !u!64 &-1200553007253213482
MeshCollider:
  m_ObjectHideFlags: 0
  m_CorrespondingSourceObject: {fileID: 0}
  m_PrefabInstance: {fileID: 0}
  m_PrefabAsset: {fileID: 0}
  m_GameObject: {fileID: 4586183935837940532}
  m_Material: {fileID: 0}
  m_IsTrigger: 0
  m_Enabled: 1
  serializedVersion: 4
  m_Convex: 0
  m_CookingOptions: 30
  m_Mesh: {fileID: 4781277628412113339, guid: f14cb1c1dbd9f186e8c5fffbe4226805, type: 3}
--- !u!65 &5958033629271483105
BoxCollider:
  m_ObjectHideFlags: 0
  m_CorrespondingSourceObject: {fileID: 0}
  m_PrefabInstance: {fileID: 0}
  m_PrefabAsset: {fileID: 0}
  m_GameObject: {fileID: 4586183935837940532}
  m_Material: {fileID: 0}
  m_IsTrigger: 0
  m_Enabled: 1
  serializedVersion: 2
  m_Size: {x: 0.5, y: 5, z: 0.5}
  m_Center: {x: 0.012560427, y: 2.5, z: -0.13938797}
