%YAML 1.1
%TAG !u! tag:unity3d.com,2011:
--- !u!21 &2100000
Material:
  serializedVersion: 8
  m_ObjectHideFlags: 0
  m_CorrespondingSourceObject: {fileID: 0}
  m_PrefabInstance: {fileID: 0}
  m_PrefabAsset: {fileID: 0}
  m_Name: Background
  m_Shader: {fileID: 4800000, guid: 09545b58287c6e04bbe9f91a0d8b5d24, type: 3}
  m_ValidKeywords: []
  m_InvalidKeywords: []
  m_LightmapFlags: 4
  m_EnableInstancingVariants: 0
  m_DoubleSidedGI: 0
  m_CustomRenderQueue: -1
  stringTagMap: {}
  disabledShaderPasses: []
  m_SavedProperties:
    serializedVersion: 3
    m_TexEnvs:
    - _MainTex:
        m_Texture: {fileID: 0}
        m_Scale: {x: 1, y: 1}
        m_Offset: {x: 0, y: 0}
    m_Ints: []
    m_Floats:
    - _Angle: 2.8
    - _Smoothness: -0.5
    m_Colors:
    - _PrimaryColor: {r: 0.7294118, g: 0.85490197, b: 0.62352943, a: 0}
    - _SecondaryColor: {r: 0.6, g: 0.87058824, b: 0.85490197, a: 1}
  m_BuildTextureStacks: []
