%YAML 1.1
%TAG !u! tag:unity3d.com,2011:
--- !u!1 &6017519458535628380
GameObject:
  m_ObjectHideFlags: 0
  m_CorrespondingSourceObject: {fileID: 0}
  m_PrefabInstance: {fileID: 0}
  m_PrefabAsset: {fileID: 0}
  serializedVersion: 6
  m_Component:
  - component: {fileID: 8296887718065859080}
  m_Layer: 0
  m_Name: flower01
  m_TagString: Untagged
  m_Icon: {fileID: 0}
  m_NavMeshLayer: 0
  m_StaticEditorFlags: 0
  m_IsActive: 1
--- !u!4 &8296887718065859080
Transform:
  m_ObjectHideFlags: 0
  m_CorrespondingSourceObject: {fileID: 0}
  m_PrefabInstance: {fileID: 0}
  m_PrefabAsset: {fileID: 0}
  m_GameObject: {fileID: 6017519458535628380}
  m_LocalRotation: {x: 0, y: 0, z: 0, w: 1}
  m_LocalPosition: {x: 0, y: 0, z: 0}
  m_LocalScale: {x: 1, y: 1, z: 1}
  m_ConstrainProportionsScale: 0
  m_Children:
  - {fileID: 153994052263336891}
  m_Father: {fileID: 0}
  m_RootOrder: 0
  m_LocalEulerAnglesHint: {x: 0, y: 0, z: 0}
--- !u!1001 &153994052263199035
PrefabInstance:
  m_ObjectHideFlags: 0
  serializedVersion: 2
  m_Modification:
    m_TransformParent: {fileID: 8296887718065859080}
    m_Modifications:
    - target: {fileID: 100000, guid: da1981c3ee8ea7e4186a753e15495628, type: 3}
      propertyPath: m_Name
      value: flower01
      objectReference: {fileID: 0}
    - target: {fileID: 400000, guid: da1981c3ee8ea7e4186a753e15495628, type: 3}
      propertyPath: m_RootOrder
      value: 0
      objectReference: {fileID: 0}
    - target: {fileID: 400000, guid: da1981c3ee8ea7e4186a753e15495628, type: 3}
      propertyPath: m_LocalPosition.x
      value: 0
      objectReference: {fileID: 0}
    - target: {fileID: 400000, guid: da1981c3ee8ea7e4186a753e15495628, type: 3}
      propertyPath: m_LocalPosition.y
      value: 0.05
      objectReference: {fileID: 0}
    - target: {fileID: 400000, guid: da1981c3ee8ea7e4186a753e15495628, type: 3}
      propertyPath: m_LocalPosition.z
      value: 0
      objectReference: {fileID: 0}
    - target: {fileID: 400000, guid: da1981c3ee8ea7e4186a753e15495628, type: 3}
      propertyPath: m_LocalRotation.w
      value: 1
      objectReference: {fileID: 0}
    - target: {fileID: 400000, guid: da1981c3ee8ea7e4186a753e15495628, type: 3}
      propertyPath: m_LocalRotation.x
      value: 0
      objectReference: {fileID: 0}
    - target: {fileID: 400000, guid: da1981c3ee8ea7e4186a753e15495628, type: 3}
      propertyPath: m_LocalRotation.y
      value: -0
      objectReference: {fileID: 0}
    - target: {fileID: 400000, guid: da1981c3ee8ea7e4186a753e15495628, type: 3}
      propertyPath: m_LocalRotation.z
      value: -0
      objectReference: {fileID: 0}
    - target: {fileID: 400000, guid: da1981c3ee8ea7e4186a753e15495628, type: 3}
      propertyPath: m_LocalEulerAnglesHint.x
      value: 0
      objectReference: {fileID: 0}
    - target: {fileID: 400000, guid: da1981c3ee8ea7e4186a753e15495628, type: 3}
      propertyPath: m_LocalEulerAnglesHint.y
      value: 0
      objectReference: {fileID: 0}
    - target: {fileID: 400000, guid: da1981c3ee8ea7e4186a753e15495628, type: 3}
      propertyPath: m_LocalEulerAnglesHint.z
      value: 0
      objectReference: {fileID: 0}
    m_RemovedComponents: []
  m_SourcePrefab: {fileID: 100100000, guid: da1981c3ee8ea7e4186a753e15495628, type: 3}
--- !u!1 &153994052263102363 stripped
GameObject:
  m_CorrespondingSourceObject: {fileID: 100000, guid: da1981c3ee8ea7e4186a753e15495628, type: 3}
  m_PrefabInstance: {fileID: 153994052263199035}
  m_PrefabAsset: {fileID: 0}
--- !u!65 &5134387805519627534
BoxCollider:
  m_ObjectHideFlags: 0
  m_CorrespondingSourceObject: {fileID: 0}
  m_PrefabInstance: {fileID: 0}
  m_PrefabAsset: {fileID: 0}
  m_GameObject: {fileID: 153994052263102363}
  m_Material: {fileID: 0}
  m_IsTrigger: 0
  m_Enabled: 1
  serializedVersion: 2
  m_Size: {x: 0.1, y: 0.1, z: 0.1}
  m_Center: {x: 0, y: 0, z: 0}
--- !u!4 &153994052263336891 stripped
Transform:
  m_CorrespondingSourceObject: {fileID: 400000, guid: da1981c3ee8ea7e4186a753e15495628, type: 3}
  m_PrefabInstance: {fileID: 153994052263199035}
  m_PrefabAsset: {fileID: 0}
