%YAML 1.1
%TAG !u! tag:unity3d.com,2011:
--- !u!1 &5161142452332779831
GameObject:
  m_ObjectHideFlags: 0
  m_CorrespondingSourceObject: {fileID: 0}
  m_PrefabInstance: {fileID: 0}
  m_PrefabAsset: {fileID: 0}
  serializedVersion: 6
  m_Component:
  - component: {fileID: 7983716340009404553}
  m_Layer: 0
  m_Name: flower02
  m_TagString: Untagged
  m_Icon: {fileID: 0}
  m_NavMeshLayer: 0
  m_StaticEditorFlags: 0
  m_IsActive: 1
--- !u!4 &7983716340009404553
Transform:
  m_ObjectHideFlags: 0
  m_CorrespondingSourceObject: {fileID: 0}
  m_PrefabInstance: {fileID: 0}
  m_PrefabAsset: {fileID: 0}
  m_GameObject: {fileID: 5161142452332779831}
  m_LocalRotation: {x: 0, y: 0, z: 0, w: 1}
  m_LocalPosition: {x: 0, y: 0, z: 0}
  m_LocalScale: {x: 1, y: 1, z: 1}
  m_ConstrainProportionsScale: 0
  m_Children:
  - {fileID: 5664137648103543756}
  m_Father: {fileID: 0}
  m_RootOrder: 0
  m_LocalEulerAnglesHint: {x: 0, y: 0, z: 0}
--- !u!1001 &5664137648103934284
PrefabInstance:
  m_ObjectHideFlags: 0
  serializedVersion: 2
  m_Modification:
    m_TransformParent: {fileID: 7983716340009404553}
    m_Modifications:
    - target: {fileID: 100000, guid: 41ba2a6f1d128f94eba95e5213a81254, type: 3}
      propertyPath: m_Name
      value: flower02
      objectReference: {fileID: 0}
    - target: {fileID: 400000, guid: 41ba2a6f1d128f94eba95e5213a81254, type: 3}
      propertyPath: m_RootOrder
      value: 0
      objectReference: {fileID: 0}
    - target: {fileID: 400000, guid: 41ba2a6f1d128f94eba95e5213a81254, type: 3}
      propertyPath: m_LocalPosition.x
      value: 0
      objectReference: {fileID: 0}
    - target: {fileID: 400000, guid: 41ba2a6f1d128f94eba95e5213a81254, type: 3}
      propertyPath: m_LocalPosition.y
      value: 0.05
      objectReference: {fileID: 0}
    - target: {fileID: 400000, guid: 41ba2a6f1d128f94eba95e5213a81254, type: 3}
      propertyPath: m_LocalPosition.z
      value: 0
      objectReference: {fileID: 0}
    - target: {fileID: 400000, guid: 41ba2a6f1d128f94eba95e5213a81254, type: 3}
      propertyPath: m_LocalRotation.w
      value: 1
      objectReference: {fileID: 0}
    - target: {fileID: 400000, guid: 41ba2a6f1d128f94eba95e5213a81254, type: 3}
      propertyPath: m_LocalRotation.x
      value: 0
      objectReference: {fileID: 0}
    - target: {fileID: 400000, guid: 41ba2a6f1d128f94eba95e5213a81254, type: 3}
      propertyPath: m_LocalRotation.y
      value: -0
      objectReference: {fileID: 0}
    - target: {fileID: 400000, guid: 41ba2a6f1d128f94eba95e5213a81254, type: 3}
      propertyPath: m_LocalRotation.z
      value: -0
      objectReference: {fileID: 0}
    - target: {fileID: 400000, guid: 41ba2a6f1d128f94eba95e5213a81254, type: 3}
      propertyPath: m_LocalEulerAnglesHint.x
      value: 0
      objectReference: {fileID: 0}
    - target: {fileID: 400000, guid: 41ba2a6f1d128f94eba95e5213a81254, type: 3}
      propertyPath: m_LocalEulerAnglesHint.y
      value: 0
      objectReference: {fileID: 0}
    - target: {fileID: 400000, guid: 41ba2a6f1d128f94eba95e5213a81254, type: 3}
      propertyPath: m_LocalEulerAnglesHint.z
      value: 0
      objectReference: {fileID: 0}
    m_RemovedComponents: []
  m_SourcePrefab: {fileID: 100100000, guid: 41ba2a6f1d128f94eba95e5213a81254, type: 3}
--- !u!4 &5664137648103543756 stripped
Transform:
  m_CorrespondingSourceObject: {fileID: 400000, guid: 41ba2a6f1d128f94eba95e5213a81254, type: 3}
  m_PrefabInstance: {fileID: 5664137648103934284}
  m_PrefabAsset: {fileID: 0}
--- !u!1 &5664137648103968748 stripped
GameObject:
  m_CorrespondingSourceObject: {fileID: 100000, guid: 41ba2a6f1d128f94eba95e5213a81254, type: 3}
  m_PrefabInstance: {fileID: 5664137648103934284}
  m_PrefabAsset: {fileID: 0}
--- !u!65 &6826147641483873183
BoxCollider:
  m_ObjectHideFlags: 0
  m_CorrespondingSourceObject: {fileID: 0}
  m_PrefabInstance: {fileID: 0}
  m_PrefabAsset: {fileID: 0}
  m_GameObject: {fileID: 5664137648103968748}
  m_Material: {fileID: 0}
  m_IsTrigger: 0
  m_Enabled: 1
  serializedVersion: 2
  m_Size: {x: 0.1, y: 0.1, z: 0.1}
  m_Center: {x: 0, y: 0.01, z: 0}
