%YAML 1.1
%TAG !u! tag:unity3d.com,2011:
--- !u!1 &7123332587988937266
GameObject:
  m_ObjectHideFlags: 0
  m_CorrespondingSourceObject: {fileID: 0}
  m_PrefabInstance: {fileID: 0}
  m_PrefabAsset: {fileID: 0}
  serializedVersion: 6
  m_Component:
  - component: {fileID: 1091884217872384443}
  m_Layer: 0
  m_Name: flower05
  m_TagString: Untagged
  m_Icon: {fileID: 0}
  m_NavMeshLayer: 0
  m_StaticEditorFlags: 0
  m_IsActive: 1
--- !u!4 &1091884217872384443
Transform:
  m_ObjectHideFlags: 0
  m_CorrespondingSourceObject: {fileID: 0}
  m_PrefabInstance: {fileID: 0}
  m_PrefabAsset: {fileID: 0}
  m_GameObject: {fileID: 7123332587988937266}
  m_LocalRotation: {x: 0, y: 0, z: 0, w: 1}
  m_LocalPosition: {x: 0, y: 0, z: 0}
  m_LocalScale: {x: 1, y: 1, z: 1}
  m_ConstrainProportionsScale: 0
  m_Children:
  - {fileID: 4559509647499642859}
  m_Father: {fileID: 0}
  m_RootOrder: 0
  m_LocalEulerAnglesHint: {x: 0, y: 0, z: 0}
--- !u!1001 &4559509647499255147
PrefabInstance:
  m_ObjectHideFlags: 0
  serializedVersion: 2
  m_Modification:
    m_TransformParent: {fileID: 1091884217872384443}
    m_Modifications:
    - target: {fileID: 100000, guid: f1c3f8e347f55f44e98e7ea73efac66e, type: 3}
      propertyPath: m_Name
      value: flower05
      objectReference: {fileID: 0}
    - target: {fileID: 400000, guid: f1c3f8e347f55f44e98e7ea73efac66e, type: 3}
      propertyPath: m_RootOrder
      value: 0
      objectReference: {fileID: 0}
    - target: {fileID: 400000, guid: f1c3f8e347f55f44e98e7ea73efac66e, type: 3}
      propertyPath: m_LocalPosition.x
      value: 0
      objectReference: {fileID: 0}
    - target: {fileID: 400000, guid: f1c3f8e347f55f44e98e7ea73efac66e, type: 3}
      propertyPath: m_LocalPosition.y
      value: 0.045
      objectReference: {fileID: 0}
    - target: {fileID: 400000, guid: f1c3f8e347f55f44e98e7ea73efac66e, type: 3}
      propertyPath: m_LocalPosition.z
      value: 0
      objectReference: {fileID: 0}
    - target: {fileID: 400000, guid: f1c3f8e347f55f44e98e7ea73efac66e, type: 3}
      propertyPath: m_LocalRotation.w
      value: 1
      objectReference: {fileID: 0}
    - target: {fileID: 400000, guid: f1c3f8e347f55f44e98e7ea73efac66e, type: 3}
      propertyPath: m_LocalRotation.x
      value: 0
      objectReference: {fileID: 0}
    - target: {fileID: 400000, guid: f1c3f8e347f55f44e98e7ea73efac66e, type: 3}
      propertyPath: m_LocalRotation.y
      value: -0
      objectReference: {fileID: 0}
    - target: {fileID: 400000, guid: f1c3f8e347f55f44e98e7ea73efac66e, type: 3}
      propertyPath: m_LocalRotation.z
      value: -0
      objectReference: {fileID: 0}
    - target: {fileID: 400000, guid: f1c3f8e347f55f44e98e7ea73efac66e, type: 3}
      propertyPath: m_LocalEulerAnglesHint.x
      value: 0
      objectReference: {fileID: 0}
    - target: {fileID: 400000, guid: f1c3f8e347f55f44e98e7ea73efac66e, type: 3}
      propertyPath: m_LocalEulerAnglesHint.y
      value: 0
      objectReference: {fileID: 0}
    - target: {fileID: 400000, guid: f1c3f8e347f55f44e98e7ea73efac66e, type: 3}
      propertyPath: m_LocalEulerAnglesHint.z
      value: 0
      objectReference: {fileID: 0}
    m_RemovedComponents: []
  m_SourcePrefab: {fileID: 100100000, guid: f1c3f8e347f55f44e98e7ea73efac66e, type: 3}
--- !u!1 &4559509647499287499 stripped
GameObject:
  m_CorrespondingSourceObject: {fileID: 100000, guid: f1c3f8e347f55f44e98e7ea73efac66e, type: 3}
  m_PrefabInstance: {fileID: 4559509647499255147}
  m_PrefabAsset: {fileID: 0}
--- !u!65 &5715737520817602770
BoxCollider:
  m_ObjectHideFlags: 0
  m_CorrespondingSourceObject: {fileID: 0}
  m_PrefabInstance: {fileID: 0}
  m_PrefabAsset: {fileID: 0}
  m_GameObject: {fileID: 4559509647499287499}
  m_Material: {fileID: 0}
  m_IsTrigger: 0
  m_Enabled: 1
  serializedVersion: 2
  m_Size: {x: 0.1, y: 0.1, z: 0.1}
  m_Center: {x: 0, y: 0, z: 0}
--- !u!4 &4559509647499642859 stripped
Transform:
  m_CorrespondingSourceObject: {fileID: 400000, guid: f1c3f8e347f55f44e98e7ea73efac66e, type: 3}
  m_PrefabInstance: {fileID: 4559509647499255147}
  m_PrefabAsset: {fileID: 0}
