<svg width="51" height="51" viewBox="0 0 51 51" fill="none" xmlns="http://www.w3.org/2000/svg">
<path fill-rule="evenodd" clip-rule="evenodd" d="M23 28H0.5V23H23V0.5H28V23H50.5V28H28V50.5H23V28Z" fill="white"/>
</svg>
