<svg width="42" height="60" viewBox="0 0 42 60" fill="none" xmlns="http://www.w3.org/2000/svg">
<path fill-rule="evenodd" clip-rule="evenodd" d="M11.5725 30L41.4112 55.1274L35.625 60L0 30L35.625 0L41.4112 4.87262L11.5725 30Z" fill="#313131"/>
</svg>
