<svg width="49" height="49" viewBox="0 0 49 49" fill="none" xmlns="http://www.w3.org/2000/svg">
<path d="M44.5 4.50001L4.5 44.5M44.5 44.5L4.5 4.5" stroke="#FF4141" stroke-width="8" stroke-linecap="round"/>
</svg>
