<svg width="79" height="15" viewBox="0 0 79 15" fill="none" xmlns="http://www.w3.org/2000/svg">
<path fill-rule="evenodd" clip-rule="evenodd" d="M9.02083 14.8333C4.21135 14.8333 0.3125 11.55 0.3125 7.49996C0.3125 3.44987 4.21135 0.166626 9.02083 0.166626C13.8303 0.166626 17.7292 3.44987 17.7292 7.49996C17.7292 11.55 13.8303 14.8333 9.02083 14.8333ZM39.5 14.8333C34.6905 14.8333 30.7916 11.55 30.7916 7.49996C30.7916 3.44987 34.6905 0.166626 39.5 0.166626C44.3095 0.166626 48.2083 3.44987 48.2083 7.49996C48.2083 11.55 44.3095 14.8333 39.5 14.8333ZM61.2708 7.49996C61.2708 11.55 65.1696 14.8333 69.9791 14.8333C74.7886 14.8333 78.6874 11.55 78.6874 7.49996C78.6874 3.44987 74.7886 0.166626 69.9791 0.166626C65.1696 0.166626 61.2708 3.44987 61.2708 7.49996Z" fill="white"/>
</svg>
