<svg width="25" height="32" viewBox="0 0 25 32" fill="none" xmlns="http://www.w3.org/2000/svg">
<path d="M22.4274 14.1108C24.7699 15.4646 24.7785 17.1676 22.4274 18.6981L4.26111 31.4036C1.97855 32.6669 0.428289 31.921 0.265555 29.1876L0.18847 2.59524C0.13708 0.0774137 2.137 -0.633958 4.0427 0.573218L22.4274 14.1108Z" fill="#313131"/>
</svg>
