<svg width="400" height="342" viewBox="0 0 400 342" fill="none" xmlns="http://www.w3.org/2000/svg">
<path d="M164.077 118.924C164.077 118.924 164.645 119.534 165.681 120.668C166.683 121.802 168.353 123.489 170.157 125.64C171.795 127.85 174 130.264 176.138 133.491C177.207 135.09 178.376 136.777 179.579 138.551C180.715 140.353 181.818 142.331 183.02 144.337C184.257 146.314 185.359 148.495 186.462 150.763C187.531 153.031 188.867 155.299 189.769 157.77C190.772 160.213 191.841 162.742 192.91 165.301C193.812 167.918 194.714 170.622 195.616 173.355C196.618 176.059 197.22 178.938 198.021 181.788C198.79 184.637 199.592 187.516 200.093 190.511C200.661 193.476 201.296 196.442 201.83 199.437L203.133 208.509C203.634 211.504 203.801 214.586 204.069 217.61C204.269 220.634 204.67 223.658 204.737 226.653C204.804 232.672 205.238 238.574 204.904 244.302C204.737 250.031 204.637 255.555 204.069 260.818C203.601 266.052 203.334 271.024 202.599 275.589C201.997 280.154 201.463 284.341 200.995 288.063C200.327 291.756 199.759 294.983 199.291 297.629C198.356 302.921 197.821 305.974 197.821 305.974L197.754 306.294C196.986 310.597 200.394 314.639 205.338 315.279C210.283 315.947 214.927 312.982 215.662 308.678C215.662 308.62 215.695 308.504 215.695 308.446C215.695 308.446 216.163 305.305 216.932 299.781C217.333 297.019 217.8 293.675 218.368 289.837C218.736 285.969 219.137 281.608 219.571 276.868C220.106 272.129 220.172 266.953 220.406 261.487C220.74 256.02 220.573 250.234 220.473 244.273C220.54 238.313 219.805 232.119 219.471 225.868C219.27 222.728 218.736 219.587 218.368 216.418C217.934 213.249 217.633 210.079 216.965 206.939C216.364 203.799 215.762 200.629 215.194 197.489C214.459 194.378 213.591 191.267 212.822 188.184C212.087 185.102 211.118 182.078 210.116 179.113C209.08 176.147 208.278 173.181 207.042 170.36C205.906 167.511 204.77 164.749 203.668 162.015C202.365 159.34 201.129 156.723 199.892 154.194C198.757 151.635 197.22 149.28 195.95 146.925C194.647 144.598 193.344 142.36 191.907 140.266C190.504 138.173 189.235 136.166 187.898 134.276C186.495 132.444 185.125 130.729 183.856 129.101C181.383 125.844 178.644 123.169 176.706 120.901C174.634 118.749 172.964 117.266 171.828 116.132C170.692 115.057 170.091 114.475 170.091 114.475C168.621 113.079 166.148 112.963 164.545 114.242C162.941 115.493 162.774 117.528 164.077 118.924Z" fill="#558B2F"/>
<path d="M290.668 303.88C274.831 289.429 253.148 276.228 230.663 280.27C213.925 283.294 198.523 295.623 182.051 291.668C176.806 290.418 172.195 287.568 166.883 286.551C154.455 284.137 142.594 292.221 134.609 300.856C126.624 309.492 119.675 319.698 108.081 324.321C100.932 327.171 92.8464 327.52 85.2624 329.352C77.6783 331.183 68.123 342 68.123 342L336.606 340.808C336.606 340.808 317.529 328.683 313.119 324.903C305.268 318.157 298.252 310.801 290.668 303.88Z" fill="url(#paint0_linear_21_90)"/>
<path opacity="0.2" d="M239.016 288.237C236.877 288.237 234.772 288.412 232.701 288.79C227.589 289.72 222.277 291.814 216.664 294.082C207.944 297.571 198.923 301.147 188.733 301.147C185.559 301.147 182.419 300.769 179.412 300.072C176.171 299.286 173.298 298.123 170.759 297.106C168.554 296.204 166.482 295.39 164.712 295.041C163.943 294.896 163.175 294.809 162.373 294.809C156.526 294.809 149.076 299.112 142.427 306.294C140.924 307.922 139.42 309.638 137.883 311.441C131.301 319.03 123.818 327.607 112.291 332.23C111.523 332.521 110.788 332.812 110.019 333.074L307.473 332.201C306.938 331.794 306.471 331.416 306.103 331.096C301.259 326.967 296.748 322.606 292.405 318.39C289.498 315.569 286.491 312.662 283.484 309.929C272.593 300.013 256.088 288.237 239.016 288.237ZM239.016 279.514C258.46 279.514 276.802 291.232 290.668 303.881C298.252 310.801 305.268 318.157 313.086 324.874C317.496 328.654 336.573 340.779 336.573 340.779L68.0895 341.971C68.0895 341.971 77.6448 331.184 85.2289 329.323C92.813 327.491 100.898 327.142 108.048 324.292C119.641 319.669 126.591 309.463 134.576 300.828C141.592 293.238 151.581 286.086 162.339 286.086C163.843 286.086 165.346 286.231 166.85 286.522C172.162 287.539 176.773 290.389 182.018 291.639C184.256 292.163 186.461 292.424 188.667 292.424C202.699 292.424 216.163 282.858 230.63 280.241C233.469 279.776 236.243 279.514 239.016 279.514Z" fill="#424242"/>
<path d="M399.985 75.1632C399.985 75.1632 402.725 150.53 333.032 185.131C263.338 219.732 212.221 196.529 212.221 196.529C212.221 196.529 198.857 62.8347 399.985 75.1632Z" fill="url(#paint1_linear_21_90)"/>
<path opacity="0.2" d="M374.627 82.316C319.4 82.316 278.172 94.8481 252.046 119.534C224.282 145.761 221.308 179.054 221.241 191.179C227.589 193.185 239.918 196.18 256.456 196.18C280.277 196.18 304.533 190.132 328.521 178.211C380.273 152.536 389.094 101.536 390.564 82.6649C385.151 82.4323 379.806 82.316 374.627 82.316ZM374.627 74.349C382.679 74.349 391.098 74.6107 399.985 75.1632C399.985 75.1632 402.725 150.53 333.032 185.131C303.263 199.931 276.869 204.147 256.422 204.147C228.993 204.147 212.221 196.529 212.221 196.529C212.221 196.529 200.059 74.349 374.627 74.349Z" fill="#424242"/>
<path d="M-7.62939e-05 4.27415C-7.62939e-05 4.27415 100.698 -18.522 159.065 41.3469C217.433 101.216 199.892 160.823 199.892 160.823C199.892 160.823 27.1623 197.721 -7.62939e-05 4.27415Z" fill="url(#paint2_linear_21_90)"/>
<path opacity="0.2" d="M44.9031 7.96701C30.1358 7.96701 17.7407 9.42085 10.19 10.5548C19.3109 65.9169 41.8293 106.13 77.244 130.176C108.249 151.228 143.196 155.648 167.084 155.648C177.909 155.648 186.695 154.746 192.041 153.99C194.48 139.248 197.454 92.9582 152.116 46.4355C121.045 14.6547 76.6761 7.96701 44.9031 7.96701ZM44.9031 0C79.1484 0 125.923 7.3564 159.065 41.318C217.433 101.187 199.892 160.823 199.892 160.823C199.892 160.823 186.729 163.644 167.084 163.644C115.599 163.644 19.6784 144.308 0.0333099 4.27427C-0.000106812 4.27427 18.8432 0 44.9031 0Z" fill="#424242"/>
<path opacity="0.2" d="M188.3 142.359C188.3 142.359 186.73 140.004 183.957 135.904C182.587 133.84 180.916 131.368 178.778 128.519C176.673 125.698 174.435 122.413 171.695 119.069C169.022 115.667 166.149 111.974 162.875 108.223C159.734 104.385 156.126 100.518 152.417 96.5054C150.613 94.47 148.542 92.551 146.604 90.5447C144.633 88.5384 142.628 86.503 140.49 84.5549C138.385 82.5777 136.247 80.6005 134.075 78.6232C131.837 76.7042 129.632 74.756 127.393 72.837C125.188 70.8888 122.783 69.0861 120.511 67.2252C118.239 65.3643 115.9 63.5324 113.528 61.8169C108.884 58.2696 104.106 54.9839 99.4958 51.8145C94.8184 48.7324 90.2746 45.7666 85.8311 43.0915C81.3875 40.4455 77.2113 37.9449 73.2021 35.7933C69.2597 33.5544 65.5846 31.6353 62.277 29.9779C59.0028 28.2624 56.1295 26.8086 53.724 25.7037C48.9464 23.4066 46.2067 22.0981 46.2067 22.0981C46.2067 22.0981 48.8795 23.5229 53.5235 25.9944C55.8622 27.2156 58.6687 28.7858 61.8426 30.6176C65.05 32.4204 68.6249 34.4848 72.4002 36.84C76.2758 39.1371 80.3184 41.7831 84.5615 44.6035C88.838 47.4239 93.1813 50.5351 97.6582 53.7917C102.068 57.1065 106.612 60.5375 111.022 64.2303C113.294 66.033 115.466 67.8939 117.637 69.8421C119.776 71.7902 122.048 73.6221 124.119 75.6283C126.224 77.6056 128.329 79.6118 130.4 81.5891C132.405 83.6244 134.409 85.6598 136.381 87.6952C138.385 89.7015 140.256 91.7659 142.094 93.8303C143.898 95.8948 145.836 97.8429 147.506 99.9074C150.914 103.978 154.255 107.903 157.162 111.8C160.202 115.609 162.808 119.331 165.247 122.762C167.753 126.164 169.757 129.391 171.628 132.212C173.499 135.003 175.069 137.562 176.339 139.684C178.878 143.9 180.348 146.314 180.348 146.314C181.518 148.262 184.291 149.018 186.529 147.971C188.768 146.924 189.636 144.54 188.433 142.592L188.3 142.359Z" fill="#33691E"/>
<path opacity="0.2" d="M232.067 181.642C232.067 181.642 233.503 179.287 236.043 175.187C236.677 174.169 237.379 173.035 238.147 171.785C238.983 170.622 239.885 169.372 240.82 168.034C242.725 165.33 244.829 162.277 247.536 159.108C248.839 157.508 250.208 155.822 251.612 154.106C253.149 152.449 254.719 150.733 256.323 148.989C259.463 145.383 263.339 142.01 267.081 138.318C271.157 134.916 275.166 131.165 279.776 127.85C284.187 124.332 289.031 121.192 293.842 117.964C298.82 114.969 303.731 111.829 308.943 109.27C313.988 106.479 319.267 104.182 324.312 101.856C326.851 100.722 329.457 99.7911 331.93 98.7734C334.435 97.7848 336.874 96.7962 339.347 96.0402C341.786 95.2261 344.158 94.4119 346.463 93.6559C348.768 92.8709 351.074 92.3475 353.245 91.7078C355.417 91.0972 357.522 90.5157 359.526 89.9923C361.564 89.5271 363.469 89.12 365.273 88.7129C368.881 87.8697 372.022 87.2009 374.661 86.8229C379.906 85.9215 382.913 85.4272 382.913 85.4272C382.913 85.4272 379.873 85.8343 374.594 86.5322C371.921 86.8229 368.747 87.4045 365.072 88.1023C363.235 88.4512 361.297 88.8001 359.259 89.1781C357.221 89.6434 355.116 90.1668 352.878 90.6901C350.673 91.2426 348.3 91.7078 345.962 92.4056C343.59 93.1035 341.184 93.8013 338.678 94.5573C336.139 95.2552 333.633 96.1565 331.061 97.0579C328.488 97.9884 325.815 98.8316 323.21 99.8784C317.998 102.03 312.552 104.182 307.273 106.828C301.86 109.241 296.715 112.265 291.503 115.115C286.458 118.226 281.347 121.279 276.669 124.681C271.791 127.879 267.515 131.572 263.172 134.945C259.162 138.609 254.986 141.923 251.578 145.529C249.808 147.273 248.104 148.989 246.467 150.646C244.93 152.391 243.426 154.048 242.023 155.647C239.083 158.817 236.677 161.928 234.573 164.719C233.503 166.115 232.501 167.394 231.566 168.587C230.73 169.808 229.962 170.913 229.294 171.901C226.554 175.914 224.984 178.211 224.984 178.211C223.848 179.897 224.483 182.049 226.42 183.067C228.358 184.084 230.864 183.503 232 181.816C232 181.729 232.033 181.671 232.067 181.642Z" fill="#33691E"/>
<defs>
<linearGradient id="paint0_linear_21_90" x1="202.358" y1="342.814" x2="202.358" y2="289.546" gradientUnits="userSpaceOnUse">
<stop offset="0.0022754" stop-color="#5D4037"/>
<stop offset="1" stop-color="#8D6E63"/>
</linearGradient>
<linearGradient id="paint1_linear_21_90" x1="381.22" y1="83.0808" x2="258.657" y2="201.091" gradientUnits="userSpaceOnUse">
<stop stop-color="#9CCC65"/>
<stop offset="0.9952" stop-color="#689F38"/>
</linearGradient>
<linearGradient id="paint2_linear_21_90" x1="188.089" y1="147.134" x2="52.7392" y2="3.43899" gradientUnits="userSpaceOnUse">
<stop offset="0.0048071" stop-color="#689F38"/>
<stop offset="1" stop-color="#9CCC65"/>
</linearGradient>
</defs>
</svg>
